<?xml version="1.0" encoding="UTF-8"?>
<!DOCTYPE svg PUBLIC "-//W3C//DTD SVG 1.1//EN" "http://www.w3.org/Graphics/SVG/1.1/DTD/svg11.dtd">
<svg xmlns="http://www.w3.org/2000/svg" version="1.1" width="300px" height="300px" style="shape-rendering:geometricPrecision; text-rendering:geometricPrecision; image-rendering:optimizeQuality; fill-rule:evenodd; clip-rule:evenodd" xmlns:xlink="http://www.w3.org/1999/xlink">
<g><path style="opacity:0.369" fill="#cd424f" d="M 198.5,12.5 C 195.612,13.0102 193.279,12.3435 191.5,10.5C 191.611,9.88258 191.944,9.38258 192.5,9C 195.146,8.50258 197.813,8.33591 200.5,8.5C 200.771,10.3797 200.104,11.713 198.5,12.5 Z"/></g>
<g><path style="opacity:0.08" fill="#d97782" d="M 105.5,17.5 C 105.5,16.1667 105.5,14.8333 105.5,13.5C 101.833,13.5 98.1667,13.5 94.5,13.5C 94.1734,22.6822 94.5067,31.6822 95.5,40.5C 98.8333,40.5 102.167,40.5 105.5,40.5C 105.5,39.1667 105.5,37.8333 105.5,36.5C 106.451,37.9187 106.784,39.5853 106.5,41.5C 102.167,41.5 97.8333,41.5 93.5,41.5C 93.5,31.8333 93.5,22.1667 93.5,12.5C 97.8333,12.5 102.167,12.5 106.5,12.5C 106.784,14.4147 106.451,16.0813 105.5,17.5 Z"/></g>
<g><path style="opacity:0.088" fill="#d97380" d="M 117.5,13.5 C 117.167,13.5 116.833,13.5 116.5,13.5C 113.833,13.5 111.167,13.5 108.5,13.5C 108.5,22.5 108.5,31.5 108.5,40.5C 111.385,40.1936 114.052,40.5269 116.5,41.5C 113.5,41.5 110.5,41.5 107.5,41.5C 107.5,31.8333 107.5,22.1667 107.5,12.5C 111.042,12.1872 114.375,12.5206 117.5,13.5 Z"/></g>
<g><path style="opacity:0.08" fill="#d97b85" d="M 133.5,13.5 C 135.265,12.5386 137.265,12.2053 139.5,12.5C 139.826,20.6841 139.492,28.6841 138.5,36.5C 138.5,28.8333 138.5,21.1667 138.5,13.5C 136.833,13.5 135.167,13.5 133.5,13.5 Z"/></g>
<g><path style="opacity:0.067" fill="#da7884" d="M 167.5,13.5 C 165.05,13.298 162.717,13.6314 160.5,14.5C 161.152,13.2749 162.319,12.6083 164,12.5C 165.385,12.5143 166.551,12.8476 167.5,13.5 Z"/></g>
<g><path style="opacity:0.104" fill="#d97985" d="M 191.5,10.5 C 193.279,12.3435 195.612,13.0102 198.5,12.5C 198.5,12.8333 198.5,13.1667 198.5,13.5C 196.379,13.3253 194.379,13.6586 192.5,14.5C 191.722,13.8444 191.056,13.0111 190.5,12C 190.57,11.2352 190.903,10.7352 191.5,10.5 Z"/></g>
<g><path style="opacity:0.957" fill="#ce4551" d="M 155.5,17.5 C 150.989,13.5331 146.322,13.5331 141.5,17.5C 142.176,13.6521 144.509,11.9854 148.5,12.5C 152.244,12.2501 154.578,13.9167 155.5,17.5 Z"/></g>
<g><path style="opacity:0.957" fill="#cf4955" d="M 218.5,17.5 C 213.833,13.5 209.167,13.5 204.5,17.5C 205.422,13.9167 207.756,12.2501 211.5,12.5C 215.244,12.2501 217.578,13.9167 218.5,17.5 Z"/></g>
<g><path style="opacity:0.935" fill="#c51a2e" d="M 62.5,14.5 C 62.5,29.8333 62.5,45.1667 62.5,60.5C 64.1667,60.5 65.8333,60.5 67.5,60.5C 67.5,63.8333 67.5,67.1667 67.5,70.5C 65.8333,70.5 64.1667,70.5 62.5,70.5C 62.5,74.1667 62.5,77.8333 62.5,81.5C 58.5,81.5 54.5,81.5 50.5,81.5C 50.5,77.8333 50.5,74.1667 50.5,70.5C 43.8333,70.5 37.1667,70.5 30.5,70.5C 30.5,68.1667 30.5,65.8333 30.5,63.5C 31.5862,63.38 32.2528,62.7133 32.5,61.5C 36.0388,52.0514 39.8721,42.7181 44,33.5C 46.7566,27.3308 48.9233,20.9974 50.5,14.5C 54.5,14.5 58.5,14.5 62.5,14.5 Z M 50.5,60.5 C 47.7531,60.8134 45.0865,60.48 42.5,59.5C 43.1272,58.5832 43.4606,57.5832 43.5,56.5C 44.7384,54.7857 45.405,52.7857 45.5,50.5C 46.9313,49.2196 47.5979,47.5529 47.5,45.5C 48.6005,43.7226 49.4338,41.7226 50,39.5C 50.4996,46.4921 50.6663,53.4921 50.5,60.5 Z"/></g>
<g><path style="opacity:0.757" fill="#cc3c4b" d="M 105.5,17.5 C 105.167,17.5 104.833,17.5 104.5,17.5C 104.5,16.5 104.5,15.5 104.5,14.5C 101.5,14.5 98.5,14.5 95.5,14.5C 95.5,23.1667 95.5,31.8333 95.5,40.5C 94.5067,31.6822 94.1734,22.6822 94.5,13.5C 98.1667,13.5 101.833,13.5 105.5,13.5C 105.5,14.8333 105.5,16.1667 105.5,17.5 Z"/></g>
<g><path style="opacity:0.92" fill="#c61d30" d="M 104.5,17.5 C 102.833,17.5 101.167,17.5 99.5,17.5C 98.5269,19.9479 98.1936,22.6146 98.5,25.5C 100.167,25.5 101.833,25.5 103.5,25.5C 103.5,26.5 103.5,27.5 103.5,28.5C 101.833,28.5 100.167,28.5 98.5,28.5C 98.1596,31.9725 98.493,34.6391 99.5,36.5C 101.5,36.5 103.5,36.5 105.5,36.5C 105.5,37.8333 105.5,39.1667 105.5,40.5C 102.167,40.5 98.8333,40.5 95.5,40.5C 95.5,31.8333 95.5,23.1667 95.5,14.5C 98.5,14.5 101.5,14.5 104.5,14.5C 104.5,15.5 104.5,16.5 104.5,17.5 Z"/></g>
<g><path style="opacity:0.788" fill="#cd3e4d" d="M 116.5,13.5 C 114.393,14.4682 112.059,14.8016 109.5,14.5C 109.5,22.8333 109.5,31.1667 109.5,39.5C 112.85,39.665 116.183,39.4983 119.5,39C 120.781,37.5913 121.781,36.0913 122.5,34.5C 122.638,38.6935 120.638,41.0268 116.5,41.5C 114.052,40.5269 111.385,40.1936 108.5,40.5C 108.5,31.5 108.5,22.5 108.5,13.5C 111.167,13.5 113.833,13.5 116.5,13.5 Z"/></g>
<g><path style="opacity:0.914" fill="#c61e31" d="M 116.5,13.5 C 116.833,13.5 117.167,13.5 117.5,13.5C 119.911,13.1367 121.411,14.1367 122,16.5C 122.499,22.4908 122.666,28.4908 122.5,34.5C 121.781,36.0913 120.781,37.5913 119.5,39C 116.183,39.4983 112.85,39.665 109.5,39.5C 109.5,31.1667 109.5,22.8333 109.5,14.5C 112.059,14.8016 114.393,14.4682 116.5,13.5 Z M 113.5,18.5 C 114.5,18.5 115.5,18.5 116.5,18.5C 116.789,24.5907 116.455,30.5907 115.5,36.5C 113.547,30.9262 112.88,24.9262 113.5,18.5 Z"/></g>
<g><path style="opacity:0.862" fill="#c72334" d="M 133.5,36.5 C 133.5,28.8333 133.5,21.1667 133.5,13.5C 135.167,13.5 136.833,13.5 138.5,13.5C 138.5,21.1667 138.5,28.8333 138.5,36.5C 138.5,36.8333 138.5,37.1667 138.5,37.5C 133.436,41.6779 128.77,41.3446 124.5,36.5C 124.5,36.1667 124.5,35.8333 124.5,35.5C 125.492,28.3524 125.825,21.0191 125.5,13.5C 126.833,13.5 128.167,13.5 129.5,13.5C 129.5,21.5 129.5,29.5 129.5,37.5C 131.099,37.7678 132.432,37.4345 133.5,36.5 Z"/></g>
<g><path style="opacity:0.125" fill="#d76976" d="M 133.5,36.5 C 132.432,37.4345 131.099,37.7678 129.5,37.5C 129.5,29.5 129.5,21.5 129.5,13.5C 128.167,13.5 126.833,13.5 125.5,13.5C 125.825,21.0191 125.492,28.3524 124.5,35.5C 124.5,27.8333 124.5,20.1667 124.5,12.5C 126.5,12.5 128.5,12.5 130.5,12.5C 130.5,20.5 130.5,28.5 130.5,36.5C 131.5,36.5 132.5,36.5 133.5,36.5 Z"/></g>
<g><path style="opacity:0.888" fill="#c82d3a" d="M 155.5,17.5 C 155.5,19.5 155.5,21.5 155.5,23.5C 153.833,23.5 152.167,23.5 150.5,23.5C 150.66,21.8008 150.494,20.1341 150,18.5C 149,17.1667 148,17.1667 147,18.5C 146.501,24.1569 146.334,29.8236 146.5,35.5C 146.62,36.5862 147.287,37.2528 148.5,37.5C 149.713,37.2528 150.38,36.5862 150.5,35.5C 150.5,33.5 150.5,31.5 150.5,29.5C 151.833,29.5 153.167,29.5 154.5,29.5C 154.664,32.1873 154.497,34.854 154,37.5C 153.31,39.3502 152.144,40.6836 150.5,41.5C 149.167,42.8333 147.833,42.8333 146.5,41.5C 144.5,40.1667 142.833,38.5 141.5,36.5C 140.167,30.1667 140.167,23.8333 141.5,17.5C 146.322,13.5331 150.989,13.5331 155.5,17.5 Z"/></g>
<g><path style="opacity:0.971" fill="#c9303d" d="M 167.5,13.5 C 168.933,21.6714 170.6,29.6714 172.5,37.5C 172.5,38.8333 172.5,40.1667 172.5,41.5C 170.5,41.5 168.5,41.5 166.5,41.5C 166.742,36.4922 165.075,35.4922 161.5,38.5C 160.024,40.4318 158.357,40.7652 156.5,39.5C 157.575,31.1254 158.908,22.792 160.5,14.5C 162.717,13.6314 165.05,13.298 167.5,13.5 Z"/></g>
<g><path style="opacity:0.915" fill="#c72536" d="M 186.5,17.5 C 186.5,19.1667 186.5,20.8333 186.5,22.5C 184.833,22.5 183.167,22.5 181.5,22.5C 181.88,20.302 181.213,18.6354 179.5,17.5C 178.18,20.428 177.514,23.7614 177.5,27.5C 177.833,30.8333 178.167,34.1667 178.5,37.5C 179.107,37.3764 179.44,37.0431 179.5,36.5C 181.344,34.7211 182.01,32.3878 181.5,29.5C 183.167,29.5 184.833,29.5 186.5,29.5C 186.5,31.8333 186.5,34.1667 186.5,36.5C 182.583,40.2859 178.249,40.9526 173.5,38.5C 173.5,38.1667 173.5,37.8333 173.5,37.5C 173.203,30.4419 173.536,23.4419 174.5,16.5C 178.843,13.6475 182.843,13.9809 186.5,17.5 Z"/></g>
<g><path style="opacity:0.968" fill="#c9313e" d="M 198.5,13.5 C 200.355,20.2772 201.688,27.2772 202.5,34.5C 202.328,35.4916 202.662,36.1583 203.5,36.5C 203.263,37.791 203.596,38.791 204.5,39.5C 204.03,40.6935 203.03,41.3601 201.5,41.5C 198.089,41.597 196.755,39.9304 197.5,36.5C 196.167,36.5 194.833,36.5 193.5,36.5C 193.938,40.9083 191.938,42.5749 187.5,41.5C 187.5,39.8333 187.5,38.1667 187.5,36.5C 189.157,29.2588 190.823,21.9255 192.5,14.5C 194.379,13.6586 196.379,13.3253 198.5,13.5 Z M 194.5,29.5 C 195.167,29.5 195.833,29.5 196.5,29.5C 195.833,32.1667 195.167,32.1667 194.5,29.5 Z"/></g>
<g><path style="opacity:0.913" fill="#c72a37" d="M 218.5,17.5 C 219.833,23.8333 219.833,30.1667 218.5,36.5C 215.893,40.3153 212.226,41.482 207.5,40C 206.364,38.8549 205.364,37.6883 204.5,36.5C 204.5,36.1667 204.5,35.8333 204.5,35.5C 204.5,29.8333 204.5,24.1667 204.5,18.5C 204.5,18.1667 204.5,17.8333 204.5,17.5C 209.167,13.5 213.833,13.5 218.5,17.5 Z M 210.5,18.5 C 211.496,18.4142 212.329,18.7476 213,19.5C 213.667,24.5 213.667,29.5 213,34.5C 212,37.1667 211,37.1667 210,34.5C 209.219,29.0833 209.385,23.7499 210.5,18.5 Z"/></g>
<g><path style="opacity:0.412" fill="#d35967" d="M 237.5,17.5 C 233.726,14.738 229.393,13.738 224.5,14.5C 224.5,23.1667 224.5,31.8333 224.5,40.5C 229.647,41.3369 233.98,40.0036 237.5,36.5C 237.863,38.9115 236.863,40.4115 234.5,41C 230.848,41.4986 227.182,41.6653 223.5,41.5C 223.5,31.8333 223.5,22.1667 223.5,12.5C 227.605,12.2338 231.605,12.7338 235.5,14C 236.823,14.8159 237.489,15.9826 237.5,17.5 Z"/></g>
<g><path style="opacity:0.843" fill="#c62233" d="M 237.5,17.5 C 238.833,23.8333 238.833,30.1667 237.5,36.5C 233.98,40.0036 229.647,41.3369 224.5,40.5C 224.5,31.8333 224.5,23.1667 224.5,14.5C 229.393,13.738 233.726,14.738 237.5,17.5 Z M 229.5,17.5 C 230.458,17.9528 231.292,18.6195 232,19.5C 232.667,24.8333 232.667,30.1667 232,35.5C 231.586,35.9574 231.086,36.2907 230.5,36.5C 229.504,30.2015 229.17,23.8682 229.5,17.5 Z"/></g>
<g><path style="opacity:0.38" fill="#d4626f" d="M 250.5,17.5 C 250.5,16.1667 250.5,14.8333 250.5,13.5C 247.167,13.5 243.833,13.5 240.5,13.5C 240.5,22.5 240.5,31.5 240.5,40.5C 243.833,40.5 247.167,40.5 250.5,40.5C 250.5,39.1667 250.5,37.8333 250.5,36.5C 251.451,37.9187 251.784,39.5853 251.5,41.5C 247.5,41.5 243.5,41.5 239.5,41.5C 239.5,31.8333 239.5,22.1667 239.5,12.5C 243.5,12.5 247.5,12.5 251.5,12.5C 251.784,14.4147 251.451,16.0813 250.5,17.5 Z"/></g>
<g><path style="opacity:0.929" fill="#c72334" d="M 250.5,17.5 C 248.833,17.5 247.167,17.5 245.5,17.5C 244.527,19.9479 244.194,22.6146 244.5,25.5C 245.833,25.5 247.167,25.5 248.5,25.5C 248.5,26.5 248.5,27.5 248.5,28.5C 247.167,28.5 245.833,28.5 244.5,28.5C 244.194,31.3854 244.527,34.0521 245.5,36.5C 247.167,36.5 248.833,36.5 250.5,36.5C 250.5,37.8333 250.5,39.1667 250.5,40.5C 247.167,40.5 243.833,40.5 240.5,40.5C 240.5,31.5 240.5,22.5 240.5,13.5C 243.833,13.5 247.167,13.5 250.5,13.5C 250.5,14.8333 250.5,16.1667 250.5,17.5 Z"/></g>
<g><path style="opacity:0.125" fill="#cc4553" d="M 113.5,18.5 C 114.568,17.5655 115.901,17.2322 117.5,17.5C 117.83,24.1998 117.497,30.8665 116.5,37.5C 115.893,37.3764 115.56,37.0431 115.5,36.5C 116.455,30.5907 116.789,24.5907 116.5,18.5C 115.5,18.5 114.5,18.5 113.5,18.5 Z"/></g>
<g><path style="opacity:0.394" fill="#d1535f" d="M 186.5,17.5 C 182.843,13.9809 178.843,13.6475 174.5,16.5C 173.536,23.4419 173.203,30.4419 173.5,37.5C 173.167,37.5 172.833,37.5 172.5,37.5C 172.068,29.7208 172.568,22.0542 174,14.5C 177.183,12.4766 180.683,11.9766 184.5,13C 186.037,14.1096 186.703,15.6096 186.5,17.5 Z"/></g>
<g><path style="opacity:0.125" fill="#d86774" d="M 179.5,17.5 C 178.193,23.9324 178.193,30.2657 179.5,36.5C 179.44,37.0431 179.107,37.3764 178.5,37.5C 178.167,34.1667 177.833,30.8333 177.5,27.5C 177.514,23.7614 178.18,20.428 179.5,17.5 Z"/></g>
<g><path style="opacity:0.091" fill="#d97a85" d="M 204.5,18.5 C 204.5,24.1667 204.5,29.8333 204.5,35.5C 203.833,35.5 203.5,35.8333 203.5,36.5C 202.662,36.1583 202.328,35.4916 202.5,34.5C 203.167,29.1667 203.833,23.8333 204.5,18.5 Z"/></g>
<g><path style="opacity:0.498" fill="#d66773" d="M 186.5,17.5 C 187.461,19.2646 187.795,21.2646 187.5,23.5C 185.265,23.7947 183.265,23.4614 181.5,22.5C 183.167,22.5 184.833,22.5 186.5,22.5C 186.5,20.8333 186.5,19.1667 186.5,17.5 Z"/></g>
<g><path style="opacity:0.122" fill="#d76371" d="M 99.5,17.5 C 99.5,19.8333 99.5,22.1667 99.5,24.5C 101.167,24.5 102.833,24.5 104.5,24.5C 104.5,26.1667 104.5,27.8333 104.5,29.5C 102.833,29.5 101.167,29.5 99.5,29.5C 99.5,31.8333 99.5,34.1667 99.5,36.5C 98.493,34.6391 98.1596,31.9725 98.5,28.5C 100.167,28.5 101.833,28.5 103.5,28.5C 103.5,27.5 103.5,26.5 103.5,25.5C 101.833,25.5 100.167,25.5 98.5,25.5C 98.1936,22.6146 98.5269,19.9479 99.5,17.5 Z"/></g>
<g><path style="opacity:0.073" fill="#d97c86" d="M 181.5,29.5 C 183.265,28.5386 185.265,28.2053 187.5,28.5C 187.5,31.1667 187.5,33.8333 187.5,36.5C 187.167,36.5 186.833,36.5 186.5,36.5C 186.5,34.1667 186.5,31.8333 186.5,29.5C 184.833,29.5 183.167,29.5 181.5,29.5 Z"/></g>
<g><path style="opacity:0.008" fill="#c97d86" d="M 196.5,29.5 C 195.833,29.5 195.167,29.5 194.5,29.5C 195.167,26.8333 195.833,26.8333 196.5,29.5 Z"/></g>
<g><path style="opacity:0.38" fill="#d76673" d="M 245.5,17.5 C 245.5,19.8333 245.5,22.1667 245.5,24.5C 246.833,24.5 248.167,24.5 249.5,24.5C 249.5,26.1667 249.5,27.8333 249.5,29.5C 248.167,29.5 246.833,29.5 245.5,29.5C 245.5,31.8333 245.5,34.1667 245.5,36.5C 244.527,34.0521 244.194,31.3854 244.5,28.5C 245.833,28.5 247.167,28.5 248.5,28.5C 248.5,27.5 248.5,26.5 248.5,25.5C 247.167,25.5 245.833,25.5 244.5,25.5C 244.194,22.6146 244.527,19.9479 245.5,17.5 Z"/></g>
<g><path style="opacity:0.366" fill="#d35a67" d="M 154.5,29.5 C 155.979,33.3824 155.645,37.2158 153.5,41C 152.552,41.4828 151.552,41.6495 150.5,41.5C 152.144,40.6836 153.31,39.3502 154,37.5C 154.497,34.854 154.664,32.1873 154.5,29.5 Z"/></g>
<g><path style="opacity:0.72" fill="#ca3748" d="M 50.5,34.5 C 50.56,33.9569 50.8933,33.6236 51.5,33.5C 52.8333,42.8333 52.8333,52.1667 51.5,61.5C 50.8933,61.3764 50.56,61.0431 50.5,60.5C 51.8333,51.8333 51.8333,43.1667 50.5,34.5 Z"/></g>
<g><path style="opacity:0.604" fill="#d25a65" d="M 62.5,14.5 C 58.5,14.5 54.5,14.5 50.5,14.5C 48.9233,20.9974 46.7566,27.3308 44,33.5C 39.8721,42.7181 36.0388,52.0514 32.5,61.5C 32.2528,62.7133 31.5862,63.38 30.5,63.5C 36.7096,46.743 43.2096,30.0764 50,13.5C 52.0745,12.8656 54.2412,12.5323 56.5,12.5C 58.9522,12.5391 60.9522,13.2057 62.5,14.5 Z"/></g>
<g><path style="opacity:0.071" fill="#d77580" d="M 50.5,34.5 C 51.8333,43.1667 51.8333,51.8333 50.5,60.5C 50.6663,53.4921 50.4996,46.4921 50,39.5C 49.4338,41.7226 48.6005,43.7226 47.5,45.5C 47.7328,41.5638 48.7328,37.8972 50.5,34.5 Z"/></g>
<g><path style="opacity:0.024" fill="#d6747e" d="M 146.5,35.5 C 147.833,36.8333 149.167,36.8333 150.5,35.5C 150.38,36.5862 149.713,37.2528 148.5,37.5C 147.287,37.2528 146.62,36.5862 146.5,35.5 Z"/></g>
<g><path style="opacity:0.345" fill="#d4626e" d="M 141.5,36.5 C 142.833,38.5 144.5,40.1667 146.5,41.5C 143.167,41.5 141.5,39.8333 141.5,36.5 Z"/></g>
<g><path style="opacity:0.929" fill="#d04f5a" d="M 186.5,36.5 C 186.649,37.552 186.483,38.552 186,39.5C 183.944,40.5832 182.611,42.2499 182,44.5C 180.644,45.3802 179.144,45.7135 177.5,45.5C 177.762,44.0222 177.429,42.6888 176.5,41.5C 175.145,40.8118 174.145,39.8118 173.5,38.5C 178.249,40.9526 182.583,40.2859 186.5,36.5 Z"/></g>
<g><path style="opacity:0.498" fill="#d1555f" d="M 124.5,36.5 C 128.77,41.3446 133.436,41.6779 138.5,37.5C 137.463,40.766 135.13,42.4327 131.5,42.5C 127.306,42.5659 124.973,40.5659 124.5,36.5 Z"/></g>
<g><path style="opacity:0.303" fill="#d45e6c" d="M 161.5,38.5 C 161.5,39.5 161.5,40.5 161.5,41.5C 159.396,41.7989 157.396,41.4656 155.5,40.5C 155.624,39.8933 155.957,39.56 156.5,39.5C 158.357,40.7652 160.024,40.4318 161.5,38.5 Z"/></g>
<g><path style="opacity:0.749" fill="#d35b67" d="M 204.5,36.5 C 205.364,37.6883 206.364,38.8549 207.5,40C 212.226,41.482 215.893,40.3153 218.5,36.5C 218.09,40.5597 215.756,42.5597 211.5,42.5C 208.862,42.0699 206.529,41.0699 204.5,39.5C 204.5,38.5 204.5,37.5 204.5,36.5 Z"/></g>
<g><path style="opacity:0.267" fill="#d46571" d="M 47.5,45.5 C 47.5979,47.5529 46.9313,49.2196 45.5,50.5C 45.4021,48.4471 46.0687,46.7804 47.5,45.5 Z"/></g>
<g><path style="opacity:0.51" fill="#d25865" d="M 45.5,50.5 C 45.405,52.7857 44.7384,54.7857 43.5,56.5C 43.0535,53.9899 43.7202,51.9899 45.5,50.5 Z"/></g>
<g><path style="opacity:0.081" fill="#d8717c" d="M 116.5,75.5 C 115.508,68.3524 115.175,61.0191 115.5,53.5C 114.167,53.5 112.833,53.5 111.5,53.5C 111.5,61.1667 111.5,68.8333 111.5,76.5C 110.508,68.6841 110.174,60.6841 110.5,52.5C 112.5,52.5 114.5,52.5 116.5,52.5C 116.5,60.1667 116.5,67.8333 116.5,75.5 Z"/></g>
<g><path style="opacity:0.067" fill="#da7884" d="M 138.5,53.5 C 136.05,53.298 133.717,53.6314 131.5,54.5C 132.152,53.2749 133.319,52.6083 135,52.5C 136.385,52.5143 137.551,52.8476 138.5,53.5 Z"/></g>
<g><path style="opacity:0.084" fill="#d97a84" d="M 162.5,53.5 C 162.167,53.5 161.833,53.5 161.5,53.5C 160.167,53.5 158.833,53.5 157.5,53.5C 157.5,62.5 157.5,71.5 157.5,80.5C 157.5,80.8333 157.5,81.1667 157.5,81.5C 156.506,72.0144 156.173,62.3478 156.5,52.5C 158.735,52.2053 160.735,52.5386 162.5,53.5 Z"/></g>
<g><path style="opacity:0.067" fill="#da7884" d="M 192.5,53.5 C 190.05,53.298 187.717,53.6314 185.5,54.5C 186.152,53.2749 187.319,52.6083 189,52.5C 190.385,52.5143 191.551,52.8476 192.5,53.5 Z"/></g>
<g><path style="opacity:0.08" fill="#d97782" d="M 226.5,57.5 C 226.5,56.1667 226.5,54.8333 226.5,53.5C 222.833,53.5 219.167,53.5 215.5,53.5C 215.173,62.6822 215.507,71.6822 216.5,80.5C 219.833,80.5 223.167,80.5 226.5,80.5C 226.5,79.1667 226.5,77.8333 226.5,76.5C 227.451,77.9187 227.784,79.5853 227.5,81.5C 223.167,81.5 218.833,81.5 214.5,81.5C 214.5,71.8333 214.5,62.1667 214.5,52.5C 218.833,52.5 223.167,52.5 227.5,52.5C 227.784,54.4147 227.451,56.0813 226.5,57.5 Z"/></g>
<g><path style="opacity:0.957" fill="#cf4754" d="M 108.5,57.5 C 103.833,53.5 99.1667,53.5 94.5,57.5C 95.4224,53.9167 97.7558,52.2501 101.5,52.5C 105.244,52.2501 107.578,53.9167 108.5,57.5 Z"/></g>
<g><path style="opacity:0.917" fill="#c72a38" d="M 108.5,57.5 C 110.006,65.2284 109.673,72.8951 107.5,80.5C 107.5,81.8333 107.5,83.1667 107.5,84.5C 103.375,84.9077 100.041,83.5743 97.5,80.5C 97.2172,79.7109 96.7172,79.0442 96,78.5C 95.7953,71.7536 95.2953,65.0869 94.5,58.5C 94.5,58.1667 94.5,57.8333 94.5,57.5C 99.1667,53.5 103.833,53.5 108.5,57.5 Z M 100.5,57.5 C 101.75,57.5774 102.583,58.244 103,59.5C 103.667,64.5 103.667,69.5 103,74.5C 102,77.1667 101,77.1667 100,74.5C 99.2599,68.7821 99.4265,63.1154 100.5,57.5 Z"/></g>
<g><path style="opacity:0.919" fill="#c72636" d="M 116.5,75.5 C 116.62,76.5862 117.287,77.2528 118.5,77.5C 119.713,77.2528 120.38,76.5862 120.5,75.5C 120.5,68.1667 120.5,60.8333 120.5,53.5C 121.833,53.5 123.167,53.5 124.5,53.5C 124.175,61.0191 124.508,68.3524 125.5,75.5C 125.5,76.1667 125.5,76.8333 125.5,77.5C 123.539,78.4602 121.873,79.7935 120.5,81.5C 118.274,82.559 115.941,82.3923 113.5,81C 111.963,79.8904 111.297,78.3904 111.5,76.5C 111.5,68.8333 111.5,61.1667 111.5,53.5C 112.833,53.5 114.167,53.5 115.5,53.5C 115.175,61.0191 115.508,68.3524 116.5,75.5 Z"/></g>
<g><path style="opacity:0.387" fill="#d4606d" d="M 120.5,53.5 C 121.919,52.5489 123.585,52.2155 125.5,52.5C 125.5,60.1667 125.5,67.8333 125.5,75.5C 124.508,68.3524 124.175,61.0191 124.5,53.5C 123.167,53.5 121.833,53.5 120.5,53.5 Z"/></g>
<g><path style="opacity:0.971" fill="#c9303d" d="M 138.5,53.5 C 140.424,62.7857 142.09,72.119 143.5,81.5C 141.5,81.5 139.5,81.5 137.5,81.5C 137.742,76.4922 136.075,75.4922 132.5,78.5C 131.024,80.4318 129.357,80.7652 127.5,79.5C 128.575,71.1254 129.908,62.792 131.5,54.5C 133.717,53.6314 136.05,53.298 138.5,53.5 Z"/></g>
<g><path style="opacity:0.769" fill="#cc3c4d" d="M 161.5,53.5 C 161.5,53.8333 161.5,54.1667 161.5,54.5C 160.5,54.5 159.5,54.5 158.5,54.5C 158.5,63.1667 158.5,71.8333 158.5,80.5C 158.167,80.5 157.833,80.5 157.5,80.5C 157.5,71.5 157.5,62.5 157.5,53.5C 158.833,53.5 160.167,53.5 161.5,53.5 Z"/></g>
<g><path style="opacity:1" fill="#c51b2f" d="M 161.5,54.5 C 161.5,63.1667 161.5,71.8333 161.5,80.5C 160.5,80.5 159.5,80.5 158.5,80.5C 158.5,71.8333 158.5,63.1667 158.5,54.5C 159.5,54.5 160.5,54.5 161.5,54.5 Z"/></g>
<g><path style="opacity:0.497" fill="#d55968" d="M 161.5,53.5 C 161.833,53.5 162.167,53.5 162.5,53.5C 162.5,62.8333 162.5,72.1667 162.5,81.5C 160.833,81.5 159.167,81.5 157.5,81.5C 157.5,81.1667 157.5,80.8333 157.5,80.5C 157.833,80.5 158.167,80.5 158.5,80.5C 159.5,80.5 160.5,80.5 161.5,80.5C 161.5,71.8333 161.5,63.1667 161.5,54.5C 161.5,54.1667 161.5,53.8333 161.5,53.5 Z"/></g>
<g><path style="opacity:0.412" fill="#d35967" d="M 178.5,57.5 C 174.726,54.738 170.393,53.738 165.5,54.5C 165.5,63.1667 165.5,71.8333 165.5,80.5C 170.647,81.3369 174.98,80.0036 178.5,76.5C 178.863,78.9115 177.863,80.4115 175.5,81C 171.848,81.4986 168.182,81.6653 164.5,81.5C 164.5,71.8333 164.5,62.1667 164.5,52.5C 168.605,52.2338 172.605,52.7338 176.5,54C 177.823,54.8159 178.489,55.9826 178.5,57.5 Z"/></g>
<g><path style="opacity:0.843" fill="#c62233" d="M 178.5,57.5 C 179.833,63.8333 179.833,70.1667 178.5,76.5C 174.98,80.0036 170.647,81.3369 165.5,80.5C 165.5,71.8333 165.5,63.1667 165.5,54.5C 170.393,53.738 174.726,54.738 178.5,57.5 Z M 170.5,57.5 C 171.458,57.9528 172.292,58.6195 173,59.5C 173.667,64.8333 173.667,70.1667 173,75.5C 172.586,75.9574 172.086,76.2907 171.5,76.5C 170.504,70.2015 170.17,63.8682 170.5,57.5 Z"/></g>
<g><path style="opacity:0.961" fill="#c9303e" d="M 192.5,53.5 C 194.424,62.7857 196.09,72.119 197.5,81.5C 195.5,81.5 193.5,81.5 191.5,81.5C 191.742,76.4922 190.075,75.4922 186.5,78.5C 185.024,80.4318 183.357,80.7652 181.5,79.5C 182.575,71.1254 183.908,62.792 185.5,54.5C 187.717,53.6314 190.05,53.298 192.5,53.5 Z"/></g>
<g><path style="opacity:0.412" fill="#d35967" d="M 212.5,57.5 C 208.726,54.738 204.393,53.738 199.5,54.5C 199.5,63.1667 199.5,71.8333 199.5,80.5C 204.647,81.3369 208.98,80.0036 212.5,76.5C 212.863,78.9115 211.863,80.4115 209.5,81C 205.848,81.4986 202.182,81.6653 198.5,81.5C 198.5,71.8333 198.5,62.1667 198.5,52.5C 202.605,52.2338 206.605,52.7338 210.5,54C 211.823,54.8159 212.489,55.9826 212.5,57.5 Z"/></g>
<g><path style="opacity:0.843" fill="#c62233" d="M 212.5,57.5 C 213.833,63.8333 213.833,70.1667 212.5,76.5C 208.98,80.0036 204.647,81.3369 199.5,80.5C 199.5,71.8333 199.5,63.1667 199.5,54.5C 204.393,53.738 208.726,54.738 212.5,57.5 Z M 204.5,57.5 C 205.458,57.9528 206.292,58.6195 207,59.5C 207.667,64.8333 207.667,70.1667 207,75.5C 206.586,75.9574 206.086,76.2907 205.5,76.5C 204.504,70.2015 204.17,63.8682 204.5,57.5 Z"/></g>
<g><path style="opacity:0.757" fill="#cc3c4b" d="M 226.5,57.5 C 226.167,57.5 225.833,57.5 225.5,57.5C 225.5,56.5 225.5,55.5 225.5,54.5C 222.5,54.5 219.5,54.5 216.5,54.5C 216.5,63.1667 216.5,71.8333 216.5,80.5C 215.507,71.6822 215.173,62.6822 215.5,53.5C 219.167,53.5 222.833,53.5 226.5,53.5C 226.5,54.8333 226.5,56.1667 226.5,57.5 Z"/></g>
<g><path style="opacity:0.92" fill="#c61d30" d="M 225.5,57.5 C 223.833,57.5 222.167,57.5 220.5,57.5C 219.527,59.9479 219.194,62.6146 219.5,65.5C 221.167,65.5 222.833,65.5 224.5,65.5C 224.5,66.5 224.5,67.5 224.5,68.5C 222.833,68.5 221.167,68.5 219.5,68.5C 219.16,71.9725 219.493,74.6391 220.5,76.5C 222.5,76.5 224.5,76.5 226.5,76.5C 226.5,77.8333 226.5,79.1667 226.5,80.5C 223.167,80.5 219.833,80.5 216.5,80.5C 216.5,71.8333 216.5,63.1667 216.5,54.5C 219.5,54.5 222.5,54.5 225.5,54.5C 225.5,55.5 225.5,56.5 225.5,57.5 Z"/></g>
<g><path style="opacity:0.78" fill="#d25662" d="M 94.5,58.5 C 95.2953,65.0869 95.7953,71.7536 96,78.5C 96.7172,79.0442 97.2172,79.7109 97.5,80.5C 96.5041,80.5858 95.6708,80.2524 95,79.5C 93.3118,72.3887 93.1451,65.3887 94.5,58.5 Z"/></g>
<g><path style="opacity:0.122" fill="#d76371" d="M 220.5,57.5 C 220.5,59.8333 220.5,62.1667 220.5,64.5C 222.167,64.5 223.833,64.5 225.5,64.5C 225.5,66.1667 225.5,67.8333 225.5,69.5C 223.833,69.5 222.167,69.5 220.5,69.5C 220.5,71.8333 220.5,74.1667 220.5,76.5C 219.493,74.6391 219.16,71.9725 219.5,68.5C 221.167,68.5 222.833,68.5 224.5,68.5C 224.5,67.5 224.5,66.5 224.5,65.5C 222.833,65.5 221.167,65.5 219.5,65.5C 219.194,62.6146 219.527,59.9479 220.5,57.5 Z"/></g>
<g><path style="opacity:0.031" fill="#d77882" d="M 116.5,75.5 C 117.833,76.8333 119.167,76.8333 120.5,75.5C 120.38,76.5862 119.713,77.2528 118.5,77.5C 117.287,77.2528 116.62,76.5862 116.5,75.5 Z"/></g>
<g><path style="opacity:0.227" fill="#d5626d" d="M 125.5,77.5 C 125.011,80.324 123.344,81.6574 120.5,81.5C 121.873,79.7935 123.539,78.4602 125.5,77.5 Z"/></g>
<g><path style="opacity:0.303" fill="#d45e6c" d="M 132.5,78.5 C 132.5,79.5 132.5,80.5 132.5,81.5C 130.396,81.7989 128.396,81.4656 126.5,80.5C 126.624,79.8933 126.957,79.56 127.5,79.5C 129.357,80.7652 131.024,80.4318 132.5,78.5 Z"/></g>
<g><path style="opacity:0.388" fill="#d5626f" d="M 150.5,76.5 C 149.508,69.0182 149.175,61.3516 149.5,53.5C 148.167,53.5 146.833,53.5 145.5,53.5C 145.5,62.5 145.5,71.5 145.5,80.5C 148.5,80.5 151.5,80.5 154.5,80.5C 154.5,79.1667 154.5,77.8333 154.5,76.5C 155.451,77.9187 155.784,79.5853 155.5,81.5C 151.833,81.5 148.167,81.5 144.5,81.5C 144.5,71.8333 144.5,62.1667 144.5,52.5C 146.5,52.5 148.5,52.5 150.5,52.5C 150.5,60.5 150.5,68.5 150.5,76.5 Z"/></g>
<g><path style="opacity:0.95" fill="#c62032" d="M 150.5,76.5 C 151.833,76.5 153.167,76.5 154.5,76.5C 154.5,77.8333 154.5,79.1667 154.5,80.5C 151.5,80.5 148.5,80.5 145.5,80.5C 145.5,71.5 145.5,62.5 145.5,53.5C 146.833,53.5 148.167,53.5 149.5,53.5C 149.175,61.3516 149.508,69.0182 150.5,76.5 Z"/></g>
<g><path style="opacity:0.303" fill="#d45e6c" d="M 186.5,78.5 C 186.5,79.5 186.5,80.5 186.5,81.5C 184.396,81.7989 182.396,81.4656 180.5,80.5C 180.624,79.8933 180.957,79.56 181.5,79.5C 183.357,80.7652 185.024,80.4318 186.5,78.5 Z"/></g>
<g><path style="opacity:0.408" fill="#d35f6a" d="M 107.5,80.5 C 109.344,81.2039 109.844,82.5372 109,84.5C 108.31,85.7383 107.81,85.7383 107.5,84.5C 107.5,83.1667 107.5,81.8333 107.5,80.5 Z"/></g>
<g><path style="opacity:0.761" fill="#d25a65" d="M 261.5,124.5 C 256.299,120.156 251.632,120.49 247.5,125.5C 247.973,121.434 250.306,119.434 254.5,119.5C 258.13,119.567 260.463,121.234 261.5,124.5 Z"/></g>
<g><path style="opacity:0.913" fill="#c72533" d="M 261.5,124.5 C 262.482,127.962 262.815,131.629 262.5,135.5C 257.167,135.5 251.833,135.5 246.5,135.5C 246.187,131.958 246.521,128.625 247.5,125.5C 251.632,120.49 256.299,120.156 261.5,124.5 Z"/></g>
<g><path style="opacity:0.074" fill="#d97f8a" d="M 211.5,131.5 C 212.568,130.566 213.901,130.232 215.5,130.5C 215.832,168.337 215.498,206.004 214.5,243.5C 214.5,206.167 214.5,168.833 214.5,131.5C 213.5,131.5 212.5,131.5 211.5,131.5 Z"/></g>
<g><path style="opacity:0.212" fill="#cd4b5a" d="M 84.5,249.5 C 83.1667,249.5 81.8333,249.5 80.5,249.5C 80.6667,210.165 80.5,170.832 80,131.5C 79.3292,132.252 78.4959,132.586 77.5,132.5C 78.287,130.896 79.6203,130.229 81.5,130.5C 81.5,169.833 81.5,209.167 81.5,248.5C 82.791,248.263 83.791,248.596 84.5,249.5 Z"/></g>
<g><path style="opacity:0.357" fill="#d25967" d="M 224.5,132.5 C 223.504,132.586 222.671,132.252 222,131.5C 221.833,169.838 221.333,208.171 220.5,246.5C 215.699,248.657 210.699,249.99 205.5,250.5C 210.216,248.261 215.216,246.595 220.5,245.5C 220.5,207.167 220.5,168.833 220.5,130.5C 222.38,130.229 223.713,130.896 224.5,132.5 Z"/></g>
<g><path style="opacity:0.986" fill="#c62333" d="M 84.5,249.5 C 89.6395,250.368 94.6395,251.701 99.5,253.5C 99.6107,254.117 99.944,254.617 100.5,255C 102.473,255.495 104.473,255.662 106.5,255.5C 112.63,256.767 118.63,258.433 124.5,260.5C 124.611,261.117 124.944,261.617 125.5,262C 127.473,262.495 129.473,262.662 131.5,262.5C 136.231,263.354 140.898,264.52 145.5,266C 148.817,266.498 152.15,266.665 155.5,266.5C 161.441,266.326 166.774,264.659 171.5,261.5C 179.283,260.349 186.616,258.016 193.5,254.5C 197.216,252.595 201.216,251.261 205.5,250.5C 210.699,249.99 215.699,248.657 220.5,246.5C 221.333,208.171 221.833,169.838 222,131.5C 222.671,132.252 223.504,132.586 224.5,132.5C 225.81,152.351 226.476,172.351 226.5,192.5C 226.488,212.384 225.821,232.051 224.5,251.5C 223.791,252.404 222.791,252.737 221.5,252.5C 219.473,252.338 217.473,252.505 215.5,253C 214.944,253.383 214.611,253.883 214.5,254.5C 209.784,256.739 204.784,258.405 199.5,259.5C 197.473,259.338 195.473,259.505 193.5,260C 192.944,260.383 192.611,260.883 192.5,261.5C 181.383,265.622 170.05,269.455 158.5,273C 154.514,273.499 150.514,273.666 146.5,273.5C 144.485,272.076 142.152,271.41 139.5,271.5C 135.573,271.074 131.907,270.074 128.5,268.5C 126.485,267.076 124.152,266.41 121.5,266.5C 107.899,263.435 94.5653,259.769 81.5,255.5C 79.7095,254.609 77.8761,253.609 76,252.5C 75.5,213.501 75.3333,174.501 75.5,135.5C 76.1667,134.5 76.8333,133.5 77.5,132.5C 78.4959,132.586 79.3292,132.252 80,131.5C 80.5,170.832 80.6667,210.165 80.5,249.5C 81.8333,249.5 83.1667,249.5 84.5,249.5 Z"/></g>
<g><path style="opacity:0.725" fill="#cc3c4c" d="M 211.5,131.5 C 212.5,131.5 213.5,131.5 214.5,131.5C 214.5,168.833 214.5,206.167 214.5,243.5C 213.833,243.5 213.167,243.5 212.5,243.5C 213.826,206.567 213.826,169.567 212.5,132.5C 209.001,134.444 205.667,136.611 202.5,139C 201.207,139.49 199.873,139.657 198.5,139.5C 202.295,136.095 206.628,133.429 211.5,131.5 Z"/></g>
<g><path style="opacity:0.998" fill="#c51a2d" d="M 212.5,243.5 C 210.786,244.738 208.786,245.405 206.5,245.5C 204.473,245.338 202.473,245.505 200.5,246C 199.944,246.383 199.611,246.883 199.5,247.5C 198.791,248.404 197.791,248.737 196.5,248.5C 194.473,248.338 192.473,248.505 190.5,249C 189.944,249.383 189.611,249.883 189.5,250.5C 188.791,251.404 187.791,251.737 186.5,251.5C 184.473,251.338 182.473,251.505 180.5,252C 179.944,252.383 179.611,252.883 179.5,253.5C 173.107,256.072 166.441,258.072 159.5,259.5C 157.833,259.5 156.167,259.5 154.5,259.5C 154.5,228.167 154.5,196.833 154.5,165.5C 159.481,163.136 164.481,160.636 169.5,158C 171.063,157.241 172.063,156.074 172.5,154.5C 173.873,154.657 175.207,154.49 176.5,154C 180.005,150.746 184.005,148.246 188.5,146.5C 188.863,145.817 189.196,145.15 189.5,144.5C 193.579,144.497 196.579,142.83 198.5,139.5C 199.873,139.657 201.207,139.49 202.5,139C 205.667,136.611 209.001,134.444 212.5,132.5C 213.826,169.567 213.826,206.567 212.5,243.5 Z"/></g>
<g><path style="opacity:0.982" fill="#c5192d" d="M 86.5,131.5 C 91.1667,133.5 95.8333,135.5 100.5,137.5C 106.426,142.14 112.759,146.307 119.5,150C 121.765,151.118 124.099,151.951 126.5,152.5C 132.961,157.571 139.961,161.904 147.5,165.5C 148.159,197.518 147.493,229.184 145.5,260.5C 142.592,258.395 139.258,257.395 135.5,257.5C 132.619,255.32 129.286,254.32 125.5,254.5C 121.622,251.987 117.289,250.654 112.5,250.5C 109.619,248.32 106.286,247.32 102.5,247.5C 99.619,245.32 96.2856,244.32 92.5,244.5C 91.0101,242.72 89.0101,242.054 86.5,242.5C 86.5,205.5 86.5,168.5 86.5,131.5 Z"/></g>
<g><path style="opacity:0.077" fill="#d97e89" d="M 77.5,132.5 C 76.8333,133.5 76.1667,134.5 75.5,135.5C 74.5014,174.663 74.1681,213.996 74.5,253.5C 73.3354,214.002 73.1688,174.335 74,134.5C 74.8159,133.177 75.9826,132.511 77.5,132.5 Z"/></g>
<g><path style="opacity:0.4" fill="#d46571" d="M 86.5,131.5 C 87.6009,130.402 88.9343,130.235 90.5,131C 94.0689,132.942 97.4022,135.108 100.5,137.5C 95.8333,135.5 91.1667,133.5 86.5,131.5 Z"/></g>
<g><path style="opacity:0.733" fill="#cc3b4c" d="M 75.5,135.5 C 75.3333,174.501 75.5,213.501 76,252.5C 77.8761,253.609 79.7095,254.609 81.5,255.5C 78.8478,255.59 76.5145,254.924 74.5,253.5C 74.1681,213.996 74.5014,174.663 75.5,135.5 Z"/></g>
<g><path style="opacity:0.584" fill="#d0555c" d="M 224.5,132.5 C 226.017,132.511 227.184,133.177 228,134.5C 228.667,173.167 228.667,211.833 228,250.5C 226.989,251.337 225.822,251.67 224.5,251.5C 225.821,232.051 226.488,212.384 226.5,192.5C 226.476,172.351 225.81,152.351 224.5,132.5 Z"/></g>
<g><path style="opacity:0.765" fill="#d25460" d="M 248.5,140.5 C 248.333,174.502 248.5,208.502 249,242.5C 250.546,249.032 252.546,255.365 255,261.5C 255.099,259.347 255.933,257.681 257.5,256.5C 257.477,258.927 256.977,261.26 256,263.5C 255.107,264.711 254.274,264.711 253.5,263.5C 251.032,256.261 248.865,248.928 247,241.5C 246.833,224.667 246.667,207.833 246.5,191C 246.5,173.82 247.167,156.986 248.5,140.5 Z"/></g>
<g><path style="opacity:0.932" fill="#c5192d" d="M 248.5,140.5 C 253.167,140.5 257.833,140.5 262.5,140.5C 262.832,174.671 262.498,208.671 261.5,242.5C 260.883,242.611 260.383,242.944 260,243.5C 259.505,245.473 259.338,247.473 259.5,249.5C 258.883,249.611 258.383,249.944 258,250.5C 257.505,252.473 257.338,254.473 257.5,256.5C 255.933,257.681 255.099,259.347 255,261.5C 252.546,255.365 250.546,249.032 249,242.5C 248.5,208.502 248.333,174.502 248.5,140.5 Z"/></g>
<g><path style="opacity:0.353" fill="#d3616d" d="M 100.5,137.5 C 109.501,141.998 118.168,146.998 126.5,152.5C 124.099,151.951 121.765,151.118 119.5,150C 112.759,146.307 106.426,142.14 100.5,137.5 Z"/></g>
<g><path style="opacity:0.965" fill="#ce4551" d="M 198.5,139.5 C 196.579,142.83 193.579,144.497 189.5,144.5C 192.008,142.076 195.008,140.41 198.5,139.5 Z"/></g>
<g><path style="opacity:0.945" fill="#d04f5a" d="M 189.5,144.5 C 189.196,145.15 188.863,145.817 188.5,146.5C 184.005,148.246 180.005,150.746 176.5,154C 175.207,154.49 173.873,154.657 172.5,154.5C 177.665,150.414 183.332,147.08 189.5,144.5 Z"/></g>
<g><path style="opacity:0.337" fill="#d4636f" d="M 126.5,152.5 C 133.671,156.251 140.671,160.251 147.5,164.5C 147.5,164.833 147.5,165.167 147.5,165.5C 139.961,161.904 132.961,157.571 126.5,152.5 Z"/></g>
<g><path style="opacity:0.066" fill="#d8828c" d="M 147.5,164.5 C 148.498,196.662 148.832,228.996 148.5,261.5C 147.209,261.737 146.209,261.404 145.5,260.5C 147.493,229.184 148.159,197.518 147.5,165.5C 147.5,165.167 147.5,164.833 147.5,164.5 Z"/></g>
<g><path style="opacity:0.2" fill="#cd4958" d="M 172.5,154.5 C 172.063,156.074 171.063,157.241 169.5,158C 164.481,160.636 159.481,163.136 154.5,165.5C 154.5,196.833 154.5,228.167 154.5,259.5C 156.167,259.5 157.833,259.5 159.5,259.5C 157.786,260.738 155.786,261.405 153.5,261.5C 153.333,229.165 153.5,196.832 154,164.5C 159.981,160.76 166.148,157.427 172.5,154.5 Z"/></g>
<g><path style="opacity:0.388" fill="#d25763" d="M 86.5,242.5 C 89.0101,242.054 91.0101,242.72 92.5,244.5C 90.1016,244.741 88.1016,244.074 86.5,242.5 Z"/></g>
<g><path style="opacity:0.765" fill="#d1525e" d="M 92.5,244.5 C 96.2856,244.32 99.619,245.32 102.5,247.5C 98.8379,247.277 95.5046,246.277 92.5,244.5 Z"/></g>
<g><path style="opacity:0.702" fill="#d15560" d="M 261.5,242.5 C 261.59,245.152 260.924,247.485 259.5,249.5C 259.338,247.473 259.505,245.473 260,243.5C 260.383,242.944 260.883,242.611 261.5,242.5 Z"/></g>
<g><path style="opacity:0.149" fill="#d0505c" d="M 206.5,245.5 C 204.401,246.612 202.067,247.279 199.5,247.5C 199.611,246.883 199.944,246.383 200.5,246C 202.473,245.505 204.473,245.338 206.5,245.5 Z"/></g>
<g><path style="opacity:0.804" fill="#d04e5b" d="M 102.5,247.5 C 106.286,247.32 109.619,248.32 112.5,250.5C 108.838,250.277 105.505,249.277 102.5,247.5 Z"/></g>
<g><path style="opacity:0.157" fill="#d0505c" d="M 196.5,248.5 C 194.401,249.612 192.067,250.279 189.5,250.5C 189.611,249.883 189.944,249.383 190.5,249C 192.473,248.505 194.473,248.338 196.5,248.5 Z"/></g>
<g><path style="opacity:0.165" fill="#d0525e" d="M 186.5,251.5 C 184.401,252.612 182.067,253.279 179.5,253.5C 179.611,252.883 179.944,252.383 180.5,252C 182.473,251.505 184.473,251.338 186.5,251.5 Z"/></g>
<g><path style="opacity:0.702" fill="#d15560" d="M 259.5,249.5 C 259.59,252.152 258.924,254.485 257.5,256.5C 257.338,254.473 257.505,252.473 258,250.5C 258.383,249.944 258.883,249.611 259.5,249.5 Z"/></g>
<g><path style="opacity:0.443" fill="#d25965" d="M 112.5,250.5 C 117.289,250.654 121.622,251.987 125.5,254.5C 120.835,253.943 116.502,252.61 112.5,250.5 Z"/></g>
<g><path style="opacity:0.671" fill="#d25862" d="M 221.5,252.5 C 219.485,253.924 217.152,254.59 214.5,254.5C 214.611,253.883 214.944,253.383 215.5,253C 217.473,252.505 219.473,252.338 221.5,252.5 Z"/></g>
<g><path style="opacity:0.529" fill="#d1545f" d="M 99.5,253.5 C 102.067,253.721 104.401,254.388 106.5,255.5C 104.473,255.662 102.473,255.495 100.5,255C 99.944,254.617 99.6107,254.117 99.5,253.5 Z"/></g>
<g><path style="opacity:0.749" fill="#d1535f" d="M 125.5,254.5 C 129.286,254.32 132.619,255.32 135.5,257.5C 131.838,257.277 128.505,256.277 125.5,254.5 Z"/></g>
<g><path style="opacity:0.753" fill="#d1525e" d="M 135.5,257.5 C 139.258,257.395 142.592,258.395 145.5,260.5C 141.838,260.277 138.505,259.277 135.5,257.5 Z"/></g>
<g><path style="opacity:0.459" fill="#d04f5c" d="M 193.5,254.5 C 186.616,258.016 179.283,260.349 171.5,261.5C 178.499,258.391 185.832,256.057 193.5,254.5 Z"/></g>
<g><path style="opacity:0.663" fill="#d15761" d="M 199.5,259.5 C 197.485,260.924 195.152,261.59 192.5,261.5C 192.611,260.883 192.944,260.383 193.5,260C 195.473,259.505 197.473,259.338 199.5,259.5 Z"/></g>
<g><path style="opacity:0.545" fill="#d1555f" d="M 124.5,260.5 C 127.067,260.721 129.401,261.388 131.5,262.5C 129.473,262.662 127.473,262.495 125.5,262C 124.944,261.617 124.611,261.117 124.5,260.5 Z"/></g>
<g><path style="opacity:0.808" fill="#cf4a57" d="M 171.5,261.5 C 166.774,264.659 161.441,266.326 155.5,266.5C 160.617,264.463 165.95,262.796 171.5,261.5 Z"/></g>
<g><path style="opacity:0.439" fill="#d35b67" d="M 121.5,266.5 C 124.152,266.41 126.485,267.076 128.5,268.5C 125.848,268.59 123.515,267.924 121.5,266.5 Z"/></g>
<g><path style="opacity:0.435" fill="#d35b67" d="M 139.5,271.5 C 142.152,271.41 144.485,272.076 146.5,273.5C 143.848,273.59 141.515,272.924 139.5,271.5 Z"/></g>
</svg>
