<?xml version="1.0" encoding="UTF-8" standalone="no"?>
<!-- Created with Inkscape (http://www.inkscape.org/) -->

<svg
   xmlns:dc="http://purl.org/dc/elements/1.1/"
   xmlns:cc="http://creativecommons.org/ns#"
   xmlns:rdf="http://www.w3.org/1999/02/22-rdf-syntax-ns#"
   xmlns:svg="http://www.w3.org/2000/svg"
   xmlns="http://www.w3.org/2000/svg"
   xmlns:sodipodi="http://sodipodi.sourceforge.net/DTD/sodipodi-0.dtd"
   xmlns:inkscape="http://www.inkscape.org/namespaces/inkscape"
   width="650mm"
   height="350mm"
   viewBox="0 0 650 350"
   version="1.1"
   id="svg1460"
   inkscape:version="0.92.3 (2405546, 2018-03-11)"
   sodipodi:docname="labriunesp-12.svg">
  <defs
     id="defs1454" />
  <sodipodi:namedview
     id="base"
     pagecolor="#ffffff"
     bordercolor="#666666"
     borderopacity="1.0"
     inkscape:pageopacity="0.0"
     inkscape:pageshadow="2"
     inkscape:zoom="0.175"
     inkscape:cx="-214.28571"
     inkscape:cy="560"
     inkscape:document-units="mm"
     inkscape:current-layer="g2052"
     showgrid="false"
     inkscape:window-width="1920"
     inkscape:window-height="1010"
     inkscape:window-x="0"
     inkscape:window-y="0"
     inkscape:window-maximized="1" />
  <metadata
     id="metadata1457">
    <rdf:RDF>
      <cc:Work
         rdf:about="">
        <dc:format>image/svg+xml</dc:format>
        <dc:type
           rdf:resource="http://purl.org/dc/dcmitype/StillImage" />
        <dc:title></dc:title>
      </cc:Work>
    </rdf:RDF>
  </metadata>
  <g
     inkscape:label="Camada 1"
     inkscape:groupmode="layer"
     id="layer1"
     transform="translate(0,53)">
    <g
       transform="matrix(0.81980172,0,0,0.73144189,-15.184993,-42.174915)"
       style="fill:none;stroke:none;stroke-width:0.34167886;stroke-linecap:square;stroke-miterlimit:10"
       id="g1413">
      <g
         id="g2052"
         transform="translate(16.59809,12.402118)">
        <path
           d="M 0,0 H 819 V 452 H 0 Z"
           id="path5"
           inkscape:connector-curvature="0"
           style="fill:#000000;fill-opacity:0;fill-rule:evenodd;stroke-width:0.34167886" />
        <path
           d="M 13.590551,78.38895 H 497.3071 V 400.04867 H 13.590551 Z"
           id="path7"
           inkscape:connector-curvature="0"
           style="fill:#348efa;fill-opacity:1;fill-rule:evenodd;stroke-width:0.34167886" />
        <path
           d="m 351.36585,212.78294 v 0 c 0,-128.55564 94.51456,-232.832145 211.10423,-232.908136 v 0 c 55.98834,-0.03649 109.6835,24.4524805 149.27323,68.079622 39.58971,43.627136 61.83099,102.818744 61.83099,164.553344 v 0 c 0,128.55562 -94.51458,232.83214 -211.10422,232.90813 v 0 C 445.88041,445.49189 351.36585,341.3386 351.36585,212.78296 Z"
           id="path11"
           inkscape:connector-curvature="0"
           style="fill:#ec1374;fill-rule:evenodd;stroke-width:0.34167886" />
        <path
           d="M 447.1496,44.997375 H 743.46454 V 347.01312 H 447.1496 Z"
           id="path15"
           inkscape:connector-curvature="0"
           style="fill:#000000;fill-opacity:0;fill-rule:evenodd;stroke-width:0.34167886" />
        <path
           d="m 512.134,143.0411 v 89.57812 h 61.59375 q 20.98438,0 20.98438,-23.79687 v -41.98438 q 0,-23.79687 -20.98438,-23.79687 z m -27.98437,191.75 V 124.83798 l 14.82812,-7 h 74.75 q 48.98438,0 48.98438,49 v 41.98438 q 0,45.625 -42.40625,48.70312 l 45.76562,65.65625 -24.64062,11.60938 h -1.39063 L 546.14963,257.80673 H 512.134 v 64.39063 l -26.59375,12.59375 h -1.39062 z m 190.91754,0 V 124.83798 l 26.59375,-12.59375 h 1.39062 v 209.95312 l -26.59375,12.59375 z"
           id="path17"
           inkscape:connector-curvature="0"
           style="fill:#f3f3f3;fill-rule:nonzero;stroke-width:0.34167886" />
        <path
           d="M 67.74803,73.52231 H 507.30711 V 361.99475 H 67.74803 Z"
           id="path19"
           inkscape:connector-curvature="0"
           style="fill:#000000;fill-opacity:0;fill-rule:evenodd;stroke-width:0.34167886" />
        <path
           d="M 102.13866,332.12228 V 146.7629 l 24.125,-11.42188 h 1.26563 V 309.0129 h 86.96875 v 1.26563 l -10.28125,21.84375 z M 255.75194,309.2629 h 26.65623 q 12.70313,0 12.70313,-15.23437 V 276.6379 q 0,-15.23437 -12.70313,-15.23437 h -26.65623 q -12.6875,0 -12.6875,15.23437 v 17.39063 q 0,15.23437 12.6875,15.23437 z m 0,22.85938 q -38.07813,0 -38.07813,-38.09375 V 276.6379 q 0,-38.07812 38.07813,-38.07812 h 26.65623 q 6.60938,0 12.70313,3.8125 v -11.8125 q 0,-15.23438 -12.70313,-15.23438 h -45.43748 v -1.26562 l 10.15625,-21.59375 h 35.28123 q 38.09375,0 38.09375,38.09375 v 95.21875 l -24.125,11.42187 h -1.26562 v -8.89062 q -4.82813,3.8125 -12.70313,3.8125 z"
           id="path21"
           inkscape:connector-curvature="0"
           style="fill:#f3f3f3;fill-rule:nonzero;stroke-width:0.34167886" />
        <path
           d="m 389.92246,303.14371 h 29.1875 q 12.70312,0 12.70312,-15.23438 v -63.46875 q 0,-15.23437 -12.70312,-15.23437 h -29.1875 q -12.70313,0 -12.70313,15.23437 v 63.46875 q 0,15.23438 12.70313,15.23438 z m 0,22.85937 q -38.09375,0 -38.09375,-38.09375 V 140.64371 l 24.125,-11.42187 h 1.26562 v 61.0625 q 5.07813,-3.9375 12.70313,-3.9375 h 29.1875 q 38.09375,0 38.09375,38.09375 v 63.46875 q 0,38.09375 -38.09375,38.09375 h -29.1875 z"
           id="path23"
           inkscape:connector-curvature="0"
           style="fill:#f3f3f3;fill-rule:nonzero;stroke-width:0.34167886" />
      </g>
    </g>
  </g>
</svg>
