<?xml version="1.0" encoding="UTF-8" standalone="no"?>
<svg
   xmlns:dc="http://purl.org/dc/elements/1.1/"
   xmlns:cc="http://creativecommons.org/ns#"
   xmlns:rdf="http://www.w3.org/1999/02/22-rdf-syntax-ns#"
   xmlns:svg="http://www.w3.org/2000/svg"
   xmlns="http://www.w3.org/2000/svg"
   xmlns:sodipodi="http://sodipodi.sourceforge.net/DTD/sodipodi-0.dtd"
   xmlns:inkscape="http://www.inkscape.org/namespaces/inkscape"
   version="1.1"
   viewBox="0 0 200 200"
   stroke-miterlimit="10"
   id="svg23"
   sodipodi:docname="logo-labriunesp9.svg"
   width="200"
   height="200"
   style="fill:none;stroke:none;stroke-linecap:square;stroke-miterlimit:10"
   inkscape:version="0.92.3 (2405546, 2018-03-11)">
  <metadata
     id="metadata29">
    <rdf:RDF>
      <cc:Work
         rdf:about="">
        <dc:format>image/svg+xml</dc:format>
        <dc:type
           rdf:resource="http://purl.org/dc/dcmitype/StillImage" />
        <dc:title></dc:title>
      </cc:Work>
    </rdf:RDF>
  </metadata>
  <defs
     id="defs27" />
  <sodipodi:namedview
     pagecolor="#ffffff"
     bordercolor="#666666"
     borderopacity="1"
     objecttolerance="10"
     gridtolerance="10"
     guidetolerance="10"
     inkscape:pageopacity="0"
     inkscape:pageshadow="2"
     inkscape:window-width="1920"
     inkscape:window-height="1010"
     id="namedview25"
     showgrid="false"
     showborder="true"
     inkscape:zoom="2.1454545"
     inkscape:cx="95.007874"
     inkscape:cy="55"
     inkscape:window-x="0"
     inkscape:window-y="0"
     inkscape:window-maximized="1"
     inkscape:current-layer="svg23" />
  <clipPath
     id="p.0">
    <path
       d="M 0,0 H 190.01575 V 110 H 0 Z"
       id="path2"
       inkscape:connector-curvature="0"
       style="clip-rule:nonzero" />
  </clipPath>
  <g
     clip-path="url(#p.0)"
     id="g21"
     transform="translate(8.8559322,41.991525)">
    <path
       d="M 0,0 H 190.01575 V 110 H 0 Z"
       id="path5"
       inkscape:connector-curvature="0"
       style="fill:#000000;fill-opacity:0;fill-rule:evenodd" />
    <path
       d="M 5.9960623,18.653543 H 131.66536 v 72.69292 H 5.9960623 Z"
       id="path7"
       inkscape:connector-curvature="0"
       style="fill:#348efa;fill-rule:evenodd" />
    <path
       d="m 83.761154,54.3937 v 0 c 0,-23.300327 19.706516,-42.188976 44.015746,-42.188976 v 0 c 11.67371,0 22.86928,4.444898 31.12384,12.356866 8.25455,7.911966 12.89191,18.642897 12.89191,29.83211 v 0 c 0,23.300331 -19.70651,42.18898 -44.01575,42.18898 v 0 c -24.30923,0 -44.015746,-18.888649 -44.015746,-42.18898 z"
       id="path9"
       inkscape:connector-curvature="0"
       style="fill:#ec1374;fill-rule:evenodd" />
    <path
       d="m 83.761154,54.3937 v 0 c 0,-23.300327 19.706516,-42.188976 44.015746,-42.188976 v 0 c 11.67371,0 22.86928,4.444898 31.12384,12.356866 8.25455,7.911966 12.89191,18.642897 12.89191,29.83211 v 0 c 0,23.300331 -19.70651,42.18898 -44.01575,42.18898 v 0 c -24.30923,0 -44.015746,-18.888649 -44.015746,-42.18898 z"
       id="path11"
       inkscape:connector-curvature="0"
       style="fill-rule:evenodd;stroke:#ec1374;stroke-width:8;stroke-linecap:butt;stroke-linejoin:round" />
    <path
       d="m 98.74147,17.652231 h 73.03937 V 80.644357 H 98.74147 Z"
       id="path13"
       inkscape:connector-curvature="0"
       style="fill:#000000;fill-opacity:0;fill-rule:evenodd" />
    <path
       d="m 113.1946,38.87848 v 18.328125 h 12.60937 q 4.29687,0 4.29687,-4.859375 v -8.59375 q 0,-4.875 -4.29687,-4.875 z m -5.71875,39.234375 V 35.15973 l 3.03125,-1.4375 h 15.29687 q 10.01562,0 10.01562,10.03125 v 8.59375 q 0,9.328125 -8.67187,9.953125 l 9.35937,13.4375 -5.03125,2.375 h -0.29687 l -11.01563,-15.75 h -6.96875 V 75.53473 l -5.4375,2.578125 z m 39.06598,0 V 35.15973 l 5.4375,-2.578125 h 0.28125 V 75.53473 l -5.4375,2.578125 z"
       id="path15"
       inkscape:connector-curvature="0"
       style="fill:#f3f3f3;fill-rule:nonzero" />
    <path
       d="M 20.395216,21.496063 H 113.90703 V 76.803146 H 20.395216 Z"
       id="path17"
       inkscape:connector-curvature="0"
       style="fill:#000000;fill-opacity:0;fill-rule:evenodd" />
    <path
       d="M 28.348341,73.13606 V 37.026685 l 4.687498,-2.234375 h 0.25 v 33.84375 h 16.953125 v 0.25 l -2.015625,4.25 z m 29.918928,-4.453125 h 5.203125 q 2.468754,0 2.468754,-2.96875 V 62.32356 q 0,-2.96875 -2.468754,-2.96875 h -5.203125 q -2.46875,0 -2.46875,2.96875 v 3.390625 q 0,2.96875 2.46875,2.96875 z m 0,4.453125 q -7.421875,0 -7.421875,-7.421875 V 62.32356 q 0,-7.421875 7.421875,-7.421875 h 5.203125 q 1.281254,0 2.468754,0.75 V 53.35481 q 0,-2.96875 -2.468754,-2.96875 h -8.859375 v -0.25 l 1.984375,-4.203125 h 6.875 q 7.421879,0 7.421879,7.421875 v 18.546875 l -4.703125,2.21875 h -0.25 v -1.71875 q -0.9375,0.734375 -2.468754,0.734375 z m 28.702946,-4.453125 h 5.6875 q 2.46875,0 2.46875,-2.96875 V 53.35481 q 0,-2.96875 -2.46875,-2.96875 h -5.6875 q -2.484375,0 -2.484375,2.96875 v 12.359375 q 0,2.96875 2.484375,2.96875 z m 0,4.453125 q -7.421875,0 -7.421875,-7.421875 v -28.6875 l 4.6875,-2.234375 h 0.25 v 11.90625 q 1,-0.765625 2.484375,-0.765625 h 5.6875 q 7.406245,0 7.406245,7.421875 v 12.359375 q 0,7.421875 -7.406245,7.421875 z"
       id="path19"
       inkscape:connector-curvature="0"
       style="fill:#f3f3f3;fill-rule:nonzero" />
  </g>
</svg>
